(;GM[1]FF[4]AP[Drago:4.23]CA[UTF-8]SZ[19]AB[jf][kg]AW[kf][jg]C[Putting opponent's stones into atari can feel good. One feels in control and like the one attacking. Let's again imagine a simplified situation like this. Black can atari twice!];B[lf]
;W[ke]C[White saves his/her stone];B[ig]C[Another atari.];W[jh]LB[lg:X][if:X]C[Another save.
But now what? The attack is over and black ended up with two cutting points. Whichever he protects white can harass the other. By attacking too blindly black forced white into a better situation than himself, while gaining nothing. Not every atari is a good move.])
