(;GM[1]FF[4]AP[Drago:4.23]CA[UTF-8]SZ[9]AB[ee]AW[de][ed][fe]C[Now it is black stone that is in atari! Save it from capture.]
(;B[ef]TE[1]LB[df:1][eg:2][ff:3]C[Precisely. By connecting to another stone, you increased the liberties 
of your group (from 1 to 3) and prevented White from capturing.])
(;B[ff];W[ef])
(;B[df];W[ef])
(;B[eg];W[ef])
(;B[dg];W[ef])
(;B[fg];W[ef]))
