(;GM[1]FF[4]AP[Drago:4.23]CA[UTF-8]SZ[9]AB[ed][fe][ef]AW[ce][dd][ee][df]LB[de:A]C[First let's have a look at an isolated example. Capture the white stone at A. This move is not suicide because by capturing it you gain one extra liberty.];B[de]
;W[ec]MA[de]LB[ee:A][fc:B]C[White must not retake the marked stone(X) immediately. It is prohibited by the Ko rule. The board position would repeat. Instead White has played at E7. You can connect to end the ko at A or play elsewhere at B (for example).]
(;B[ee]TE[1]C[This ko is now over. However, ko makes little sense as an isolated 
situation. Explore the other option or check out <a class="puzzleNext" onclick="loadTsumego('4-2','pzl2',tsumego)">next puzzle</a>.])
(;B[fc]
;W[ee]MA[ee]TE[1]C[The board position is now different than before so White 
may recapture the original ko. It is now you, who has to play elsewhere once before you may recapture that stone. Explore the other option or see <a class="puzzleNext" onclick="loadTsumego('4-2','pzl2',tsumego)">next puzzle</a>.]))
