(;GM[1]FF[4]AP[Drago:4.23]CA[UTF-8]SZ[9]AB[aa][ab][ac][bc][cb][ca][ba][cc][ga][gb][gc][gd][ge][gf][hf][if]
[af][bf][cf][df][dg][dh][di]AW[da][db][dc][cd][dd][bd][ad][ha][hb][hc][hd][he][ie][ib][ic][ag]
[bg][cg][ch][ci][bi][ah][ai]LB[bb:A][ia:B][id:C][bh:D]C[Which of these is the only legal move for black? A, B, C, or D?];B[bh]TE[1])
