(;GM[1]FF[4]AP[Drago:4.23]CA[UTF-8]SZ[9]AB[eb][dc][dd][de][df][eg][ff][fe][gd][ea]AW[ef][ee][ed][ec][fb][gc][hc][hb][db][cb]MA[gg]C[Save your two stones. Play X if you think it is impossible.]
(;B[fc];W[fd]
;B[fc]TE[1]C[Snapback! I guess it was more about capturing white than saving 
black, but at least you can see how often these two overlap.])
(;B[fd]
;W[fc]MA[ea][eb])
(;B[gg]
;W[fc]C[Nope, it was possible to save them.]))
